<?xml version="1.0" encoding="utf-8"?>
<!-- Generator: Adobe Illustrator 16.0.0, SVG Export Plug-In . SVG Version: 6.00 Build 0)  -->
<!DOCTYPE svg PUBLIC "-//W3C//DTD SVG 1.1//EN" "http://www.w3.org/Graphics/SVG/1.1/DTD/svg11.dtd">
<svg version="1.1" id="Layer_1" xmlns="http://www.w3.org/2000/svg" xmlns:xlink="http://www.w3.org/1999/xlink" x="0px" y="0px"
	 width="152.591px" height="36.626px" viewBox="0 0 152.591 36.626" enable-background="new 0 0 152.591 36.626"
	 xml:space="preserve">
<g id="closed">
	<path d="M132.924,12.588c3.653-0.184,7.297-0.594,10.937-0.979c2.914-0.308,5.938,0.271,8.73-1.041
		c-1.941-3.025-5.405-2.896-8.242-3.487c-13.146-2.734-26.322-6.237-39.771-1.334c-10.297,3.755-20.71,7.201-30.945,11.114
		c-13.588,5.196-27.491,8.803-42.048,9.747c-2.939,0.19-4.567-0.188-3.78-3.883c0.858-4.034,0.047-7.964-2.767-11.239
		c-0.393-0.458-1.289-0.971-1.212-1.261c0.291-1.096,1.344-0.516,2.066-0.591c4.79-0.502,9.593-0.902,14.375-1.446
		c1.513-0.171,3.113-0.715,3.204-2.565c0.073-1.512-0.355-3.32-2.142-3.496c-7.06-0.688-14.001-3.354-21.228-1.458
		C9.172,3.54-5.164,18.497,1.864,32.984c0.498,1.025,0.627,2.525,1.918,2.646c1.604,0.147,2.146-1.358,2.57-2.612
		c0.957-2.832,1.584-5.799,2.771-8.523c1.823-4.188,6.229-5.746,9.423-8.552c2.086,3.313,1.835,6.849,0.637,10.296
		c-1.848,5.318,3.17,11.155,9.054,10.305c6.94-1.003,13.769-2.328,20.361-4.687c1.878-0.671,2.936-0.7,3.345,0.063
		c25.146-9.124,51.158-14.813,78.035-17.868C130.342,13.109,131.287,12.668,132.924,12.588z"/>
</g>
</svg>
