<?xml version="1.0" encoding="utf-8"?>
<!DOCTYPE svg PUBLIC "-//W3C//DTD SVG 1.1//EN" "http://www.w3.org/Graphics/SVG/1.1/DTD/svg11.dtd">
<svg version="1.1" id="Layer_1" xmlns="http://www.w3.org/2000/svg" viewBox="0 0 145.724 409.28">
<style>
	@import "../stylesheets/bodyparts.css";
</style>
<g id="front_collar">
	<g id="front_Lapels">
		<g id="front_Lapel_Back" class="light-gray stroked">
			<path d="M36.724,105.918c0,0,60.288,16.116,83.499-9.416c23.21-25.535-9.598-38.495-9.598-38.495l-62.422-0.155L36.724,105.918z"
				/>
		</g>
		<g id="front_Left_Lapel" class="off-white stroked">
			<path d="M39.688,113.305c-1.998,0-3.606-1.137-4.919-2.249C19.576,98.178,9.084,81.617,3.585,61.836
				c-0.153-0.551-0.286-1.104-0.419-1.66c-0.415-1.738-0.704-2.844-1.387-3.604c-2.815-3.13-1.563-6.8-1.094-8.182
				c4.186-12.282,6.67-25.973,7.602-41.846c-0.008-0.079-0.021-0.163-0.029-0.25c-0.528-4.433,2.196-5.733,3.393-6.089
				C12.111,0.069,12.583,0,13.051,0c3.135,0,4.42,2.722,4.842,3.613c0.045,0.095,0.087,0.189,0.133,0.273
				C30.017,22.54,45.836,36.784,65.003,46.158c2.261,1.106,3.188,2.964,3.742,4.074c0.019,0.038,0.039,0.078,0.06,0.12l3.568,0.691
				l-0.86,3.115l0.523,1.039l-1.196,1.909c-2.337,3.732-4.898,7.347-7.378,10.841c-5.538,7.81-10.771,15.185-13.792,23.908
				l-0.604,1.729c-1.646,4.713-3.201,9.165-3.946,13.814C44.299,112.538,41.365,113.305,39.688,113.305z"/>
		</g>
		<g id="front_Right_Lapel" class="off-white stroked">
			<path d="M114.962,102.918c-4.254,0-5.361-4.577-5.834-6.531c-3.815-15.771-11.367-28.531-22.448-37.931
				c-1.086-0.922-3.347-2.84-3.314-5.722c0.032-2.864,2.299-4.699,3.516-5.686c1.035-0.84,2.074-1.678,3.113-2.515
				c8.891-7.155,17.285-13.913,24.032-22.569c3.048-3.91,5.352-7.659,7.037-11.459c0.414-0.935,0.978-1.646,1.388-2.168
				c0.109-0.142,0.223-0.279,0.323-0.424l3.456-4.889l3.193,5.063c0.084,0.134,0.175,0.264,0.265,0.395
				c0.325,0.474,0.73,1.063,1.063,1.814c4.138,9.405,9.033,20.558,13.988,31.955c0.484,1.114,0.675,2.203,0.774,2.788l0.021,0.121
				l0.188,0.759l-0.149,0.839c-3.647,20.321-8.313,39.695-25.088,53.354l-0.304,0.246
				C118.574,101.678,117.055,102.918,114.962,102.918z"/>
		</g>
	</g>
	<g id="front_Tie">
		<g id="front_Tie_Body">
			<path class="red stroked" d="M83.287,404.973c-0.145-0.31-0.293-0.612-0.441-0.918c-0.366-0.747-0.781-1.596-1.124-2.518
				c-5.173-13.896-10.341-27.796-15.509-41.693c-6.254-16.819-12.508-33.642-18.771-50.457c-0.686-1.844-1.513-4.063-1.177-6.748
				c0.594-4.158,1.187-8.248,1.777-12.336c1.267-8.762,2.575-17.817,3.799-26.729c1.819-13.269,3.965-26.69,6.041-39.676
				c3.468-21.695,7.055-44.129,9.188-66.319c1.866-19.438,2.517-35.438,2.043-50.354l-0.004-0.159
				c-0.073-2.255-0.164-5.063,1.909-7.204c1.306-1.348,3.116-2.029,5.388-2.029c0.401,0,0.838,0.021,1.31,0.067
				c5.135,0.506,6.368,3.747,6.868,6.515c2.695,14.904,4.922,31.337,6.808,50.236c2.727,27.303,6.604,63.313,12.447,99.762
				c2.404,14.987,5.287,30.833,9.351,51.381c0.621,3.141,0.576,6.219-0.132,9.152c0,0-14.079,58.37-20.709,85.839
				c-0.042,0.177-0.077,0.354-0.112,0.534c-0.254,1.278-0.727,3.659-3.048,5.263l-3.907,2.699L83.287,404.973z"/>
		</g>
		<g id="front_Tie_Knot">
			<path class="red stroked" d="M75.878,100.433c-5.609,0-10.827-2.758-14.692-7.767c-4.992-6.472-5.268-12.806-0.841-19.365
				c2.07-3.069,3.245-6.777,4.271-10.313c0.55-1.888,2.004-6.903,7.396-6.903c0.563,0,1.134,0.061,1.723,0.182
				c1.196-0.427,2.372-0.643,3.513-0.643c4.689,0,7.457,3.438,9.479,5.947c0.584,0.728,1.136,1.411,1.676,1.965
				c1.607,1.649,3.198,3.479,4.864,5.596c6.515,8.279,6.545,10.21,0.294,18.757c-0.596,0.813-1.104,1.625-1.641,2.48
				c-1.786,2.851-3.812,6.077-7.879,8.084C81.376,99.767,78.631,100.433,75.878,100.433z"/>
		</g>
	</g>
</g>
</svg>
