<?xml version="1.0" encoding="utf-8"?>
<!DOCTYPE svg PUBLIC "-//W3C//DTD SVG 1.1//EN" "http://www.w3.org/Graphics/SVG/1.1/DTD/svg11.dtd">
<svg version="1.1" id="Layer_1" xmlns="http://www.w3.org/2000/svg" viewBox="0 0 45 45">
	<style>
	@import "../stylesheets/bodyparts.css";
</style>
<g id="ball">
	<radialGradient id="SVGID" cx="1701.3867" cy="4291.6699" r="21.3614" gradientTransform="matrix(1 0 0 -1 0 5372)" gradientUnits="userSpaceOnUse">
		<stop  offset="0.5074" style="stop-color:#653300"/>
		<stop  offset="0.7488" style="stop-color:#976533"/>
	</radialGradient>
	<g id="iris" class="stroked">
		<path d="M21.422,42.864c-4.167,0-8.313-1.263-11.99-3.65C1.228,33.885-2.044,24.15,1.292,14.988
			C3.956,7.676,9.126,2.701,16.663,0.209L17.297,0l0.656,0.137c1.04,0.215,2.091,0.388,3.203,0.568
			c2.531,0.416,5.148,0.848,7.655,1.812c7.426,2.854,11.766,8.781,12.897,17.608c0.07,0.547,0.063,1.041,0.056,1.479
			c-0.005,0.282-0.014,0.709,0.027,0.838l0.79,0.736l-0.036,1.006c0.03,5.58-3.156,9.447-6.278,12.495
			C32.182,40.668,26.91,42.864,21.422,42.864z"/>
	</g>
	<g id="pupil">
		<path d="M33.243,24.276c0.033-1.933,0.065-3.866,0.098-5.801c-2.111-2.007,0.489-1.18-6.949-5.198
			c-7.44-4.018-9.69-2.769-13.962,4.026c-2.06,7.461,0.88,12.347,8.502,13.71C26.722,32.05,30.133,28.35,33.243,24.276z"/>
	</g>
	<g class="glare">
		<path d="M12.428,17.305c7.13,4.762,11.531,3.491,13.961-4.025c-0.246-0.788-0.491-1.578-0.736-2.368
			c-6.112-4.706-9.02-4.459-13.98,1.189C11.922,13.836,12.176,15.569,12.428,17.305z"/>
	</g>
</g>
</svg>
