<?xml version="1.0" encoding="utf-8"?>
<!DOCTYPE svg PUBLIC "-//W3C//DTD SVG 1.1//EN" "http://www.w3.org/Graphics/SVG/1.1/DTD/svg11.dtd">
<svg version="1.1" id="Layer_1" xmlns="http://www.w3.org/2000/svg" viewBox="0 0 112.313 72.092">
<style>
	@import "../stylesheets/bodyparts.css";
</style>
<g id="eye_background_1_">
	<path class="off-white stroked" d="M28.371,63.793c-1.107,0-2.154-0.38-3.109-1.129l-1.604-1.259C16.53,55.811,9.159,50.025,2.672,43.28
		c-3.828-3.987-1.021-7.103,0.034-8.275c1.746-1.938,3.445-3.945,5.09-5.888c4.813-5.686,9.358-11.057,15.216-15.146l0.549-0.386
		c4.952-3.461,9.229-6.449,17.745-9.159c4.331-1.39,9.597-2.64,16.091-3.816C59.623,0.205,61.88,0,64.111,0
		c17.58,0,29.182,12.372,30.233,13.534c1.763,1.759,2.323,4.049,2.82,6.072c0.415,1.688,0.773,3.146,1.685,3.996
		c2.938,2.75,2.708,6.061,2.557,8.252c-0.063,0.938-0.126,1.828,0.057,2.33l0.154,0.426l-0.004,0.453
		c-0.162,17.032-2.036,19.083-18.229,19.934c-2.689,0.137-5.447,0.447-8.114,0.747c-1.558,0.175-3.115,0.35-4.676,0.496
		c-0.246,0.035-2.576,0.438-5.043,0.866c-11.75,2.034-15.964,2.728-17.208,2.814l-3.803,0.729
		c-4.533,0.869-9.069,1.737-13.596,2.647c-0.2,0.04-0.389,0.099-0.574,0.15C29.835,63.602,29.166,63.793,28.371,63.793z"/>
	<path class="eye background" d="M112.193,54.102c-0.417-1.417-0.334-2.167-2.5-3.25c-2.167-1.084-2.67-0.186-6.479-1.534
		c-0.429-0.151-0.717-0.321-0.902-0.502l-7.374-0.107c-2.328,1.173-5.966,1.489-11.684,1.79c-4.312,0.221-8.591,0.852-12.892,1.25
		c-0.63,0.062-21.47,3.779-22.3,3.682c-5.87,1.13-11.75,2.238-17.61,3.42c-1.023,0.205-1.892,0.688-2.936,0.263l-11.012,3.083
		c-0.617,0.347-1.229,0.713-1.885,0.914c-3.979,1.2-7.979,2.301-11.96,3.5c-1.01,0.311-2.618,0.2-2.659,1.62
		c-0.051,1.229,1.301,1.858,2.319,2.38c3.101,1.568,6.34,2.1,9.61,0.568c7.147-3.34,14.71-4.648,22.5-5.818
		c5.329-0.8,10.43-3.54,16.067-4.29c12.563-1.681,25.21-2.03,37.813-2.319c6.397-0.148,13.963-0.563,18.909-1.67
		C112.169,55.971,112.609,55.518,112.193,54.102z"/>
</g>
</svg>
