<?xml version="1.0" encoding="utf-8"?>
<!-- Generator: Adobe Illustrator 16.0.0, SVG Export Plug-In . SVG Version: 6.00 Build 0)  -->
<!DOCTYPE svg PUBLIC "-//W3C//DTD SVG 1.1//EN" "http://www.w3.org/Graphics/SVG/1.1/DTD/svg11.dtd">
<svg version="1.1" id="Layer_1" xmlns="http://www.w3.org/2000/svg" viewBox="0 0 229.753 42.134">
<style>
	@import "../stylesheets/bodyparts.css";
</style>
<g id="moles_1_">
	<path class="dark-hair stroked" d="M32.444,40.095c-4.255-0.291-7.636-3.098-7.42-6.156c0.231-3.316,4.259-7.314,7.306-7.256
		c1.568,0.029,6.65,6.331,6.544,8.113C38.727,37.263,35.071,40.274,32.444,40.095z"/>
	<path class="dark-hair stroked" d="M8.217,13.407c-0.3,0-0.604-0.022-0.906-0.072c-0.33-0.052-0.687-0.086-1.051-0.121c-1.951-0.192-6.52-0.644-6.248-5.957
		c0.081-1.578,0.271-5.278,3.619-6.901L4.363,0l0.771,0.259c2.532,0.844,7.244,2.416,7.892,7.619
		c0.188,1.52-0.205,2.918-1.107,3.939C11.024,12.827,9.676,13.407,8.217,13.407z"/>
	<path class="dark-hair stroked" d="M225.037,42.134c-3.059,0-5.154-1.852-5.748-5.076l-0.038-0.196c-0.2-1.006-0.731-3.681,2.761-5.3l1.379-0.642l0.985,1.158
		c0.408,0.479,0.842,0.961,1.285,1.454c1.248,1.387,2.662,2.958,3.75,4.752c0.425,0.7,0.455,1.54,0.079,2.245
		c-0.709,1.332-2.416,1.519-4.104,1.597C225.27,42.132,225.152,42.134,225.037,42.134z"/>
</g>
</svg>
