<?xml version="1.0" encoding="utf-8"?>
<!-- Generator: Adobe Illustrator 16.0.0, SVG Export Plug-In . SVG Version: 6.00 Build 0)  -->
<!DOCTYPE svg PUBLIC "-//W3C//DTD SVG 1.1//EN" "http://www.w3.org/Graphics/SVG/1.1/DTD/svg11.dtd">
<svg version="1.1" id="Layer_1" xmlns="http://www.w3.org/2000/svg" viewBox="0 0 136.21 278.177">
<style>
	@import "../stylesheets/bodyparts.css";
</style>
<g id="hand_side_right">
	<path class="skin-highlight stroked" d="M96.206,238.11c-0.399,0.277-0.816,0.541-1.228,0.796c-0.285,0.175-0.565,0.354-0.834,0.536
		c-1.813,1.238-3.373,0.925-4.143,0.625c-2.079-0.808-2.547-2.8-2.747-3.65c-0.018-0.066-0.029-0.133-0.048-0.192
		c-4.073-10.348-9.733-18.735-17.292-25.644c-3.681-3.361-5.354-8.159-6.702-12.01c-0.253-0.722-0.495-1.417-0.74-2.065
		l-0.169-0.449l-0.042-0.479c-0.105-1.175-0.425-4.752,2.193-6.572c2.391-1.662,5.013-0.464,6.273,0.111l0.174,0.079
		c4.259,1.92,8.481,4.687,13.29,8.711c7.266,6.08,12.57,12.604,16.221,19.95c0.122,0.245,0.253,0.485,0.384,0.729
		c0.993,1.847,3.249,6.036-0.813,9.83c-0.004,0.434,0.029,1.028,0.056,1.431c0.022,0.399,0.045,0.785,0.055,1.137
		C100.213,235.323,97.196,237.421,96.206,238.11z"/>
	<path class="skin stroked" d="M77.556,276.098c-1.491,1.037-3.242,1.693-5.206,1.953c-1.427,0.188-5.765,0.759-8.005-3.872
		c-6.963-14.389-15.688-28.151-24.126-41.46c-7.271-11.462-14.782-23.313-21.215-35.607c-0.203-0.395-0.414-0.799-0.617-1.213
		c0.113,1.506,0.133,3.036,0.021,4.599l5.83,10.902l-7.502,0.706l-0.975-0.87c-2.503-2.235-3.26-5.146-3.869-7.484
		c-0.145-0.56-0.289-1.119-0.459-1.667c-6.433-19.119-10.171-39.207-11.408-61.345c-0.137-2.445,0.315-4.724,1.422-7.167
		c7.789-17.177,14.974-34.982,21.926-52.2c2.997-7.422,6.096-15.097,9.206-22.628c2.661-6.442,5.043-13.168,7.351-19.671
		c4.129-11.638,8.395-23.67,14.49-34.874l0.187-3.025L72.588,0l0.693,2.275c0.046,0.155,0.103,0.307,0.156,0.461
		c0.186,0.519,0.417,1.165,0.509,1.936c2.194,18.357,8.696,32.489,19.873,43.206c6.776,6.498,14.013,13.666,22.773,22.562
		c1.374,1.394,2.829,2.688,4.373,4.061c3.512,3.121,7.142,6.355,9.79,10.854c1.247,2.123,1.566,4.318,1.85,6.256
		c0.309,2.087,0.537,3.414,1.432,4.381c3.249,3.524,2.08,7.116,1.385,9.264l-1.055,3.228c-3.328,10.169-6.769,20.684-8.702,31.355
		c-2.544,14.047-4.3,27.729,2.079,40.656c1.803,3.65-0.073,5.807-1.354,6.764c-0.108,0.082-0.212,0.156-0.316,0.229
		c-2.344,1.63-4.826,1.819-7.377,0.562c-7.151-3.528-12.854-7.01-17.397-12.501c-7.136-7.524-13.958-15.917-12.524-28.347
		c0.234-2.02,0.019-4.198-0.208-6.501c-0.11-1.113-0.222-2.26-0.286-3.422l-0.106-1.949l2.394-1.222
		c2.146-9.145,0.338-18.295-5.783-29.453c-0.794-1.45-1.584-2.824-2.522-3.701c-1.812-1.698-2.86-3.54-3.146-5.451
		c-4.487,6.619-8.116,12.802-11.038,18.803c-7.199,14.771-10.133,30.75-8.963,48.837c0.626,1.418,2.04,4.669-0.565,6.48
		c-0.43,0.299-0.875,0.482-1.325,0.571c0.365,1.418,0.687,2.832,1.001,4.217c0.732,3.214,1.423,6.249,2.575,9.162
		c6.13,15.506,14.188,31.466,24.625,48.781c1.466,2.433,2.833,5.134,2.917,8.404c0.251,10.062-1.262,18.569-4.623,26.007
		l-0.33,0.771C82.115,270.536,80.666,273.936,77.556,276.098z M14.297,136.899c-1.931,12.107-2.05,24.505-0.382,37.547
		c0.159,1.247,0.382,2.484,0.652,3.725c-0.06-2.898-0.142-5.809-0.22-8.65c-0.203-7.115-0.411-14.475-0.238-21.759
		C14.109,147.762,14.271,138.412,14.297,136.899z"/>
	<path class="skin-highlight" d="M103.542,173.557c-6.935-7.304-13.078-14.879-11.791-26.013c0.394-3.412-0.29-6.949-0.477-10.43
		c0.619-0.315,1.241-0.635,1.859-0.954c3.258-11.88-0.062-22.627-5.723-32.95c-0.866-1.581-1.808-3.235-3.1-4.446
		c-2.973-2.783-2.903-5.525-0.491-8.512c2.631,2.764,5.202,5.595,7.916,8.275c1.941,1.917,3.603,4.058,4.298,6.632
		c3.085,11.37,6.683,22.814,6.098,34.648c-0.342,6.869-2.267,13.622-1.656,20.719C100.875,165.117,102.83,169.152,103.542,173.557z"
		/>
	<path class="skin-highlight" d="M80.988,265.529c-1.848,4.278-3.41,8.806-9.029,9.546c-2.134,0.28-3.812,0.071-4.91-2.204
		c-13.036-26.942-31.534-50.676-45.382-77.155c-2.34-4.474-3.977-8.795-4.039-14.036c-0.131-11.28-0.785-22.556-0.518-33.847
		c3.21,4.319,3.124,9.605,3.356,14.457c0.835,17.463,5.521,33.666,14.431,48.646c5.206,8.748,11.702,16.589,19.039,23.558
		c9.208,8.745,17.374,18.267,24.505,28.732C79.066,264.146,80.128,264.77,80.988,265.529z"/>
</g>
</svg>
